<svg version="1.1" xmlns="http://www.w3.org/2000/svg" xmlns:xlink="http://www.w3.org/1999/xlink" x="0px" y="0px"
	 viewBox="-129 202.9 337 437" style="enable-background:new -129 202.9 337 437;" xml:space="preserve">
<g>
	<path fill="#3471DC" d="M128.5,597.8v-82.2c-1.5,0.1-3.1,0.1-4.7,0.1c-66.3,0-120.3-53.9-120.3-120.3c0-66.3,53.9-120.3,120.3-120.3
		c1.6,0,3.1,0,4.7,0.1v-72.4c-17.8-0.4-36,1.7-54.1,6.4C-30.2,236.9-92.3,343.4-65,447.2c13,49.3,44,89,83.8,114.3l-51.4,78.4
		L128.5,597.8z"/>
	<path fill="#3471DC" d="M128.5,393.7c-3,2.8-5.7,5.6-8.2,8.6c-2.6,3.1-4.7,6.4-6.5,10.1c-1.8,3.6-2.6,7.7-2.6,12.2c0,0.7,0,1.4,0,2.3
		s0.1,1.6,0.2,2.3H95.6c-0.5-2.7-0.8-5.6-0.8-8.6c0-4.4,0.8-8.4,2.3-11.9c1.5-3.6,3.5-6.9,6-10c2.4-3.1,5-6,7.7-8.6
		c2.7-2.7,5.3-5.4,7.7-8.1c2.4-2.7,4.4-5.6,6-8.6c1.5-3,2.3-6.3,2.3-9.9c0-5.8-1.8-10.4-5.5-14.1c-3.6-3.6-9-5.4-16-5.4
		c-8.9,0-17.6,2.3-26.1,7L74,336.1c4.6-2.5,9.7-4.5,15.5-6c5.7-1.5,11.8-2.3,18.3-2.3c7.7,0,14,1.1,18.9,3.2
		c0.6,0.3,1.2,0.5,1.8,0.8v-54.5c-1.5-0.1-3.1-0.1-4.7-0.1c-65.2,0-118.3,53-118.3,118.3s53,118.3,118.3,118.3c1.6,0,3.1,0,4.7-0.1
		V393.7z M114.5,472.1c-2.4,2.7-5.7,4.1-9.9,4.1c-4.2,0-7.5-1.4-9.9-4.1c-2.4-2.7-3.6-6-3.6-9.7c0-3.7,1.2-6.9,3.6-9.7
		c2.4-2.7,5.7-4.1,9.9-4.1c4.2,0,7.5,1.4,9.9,4.1c2.4,2.7,3.6,6,3.6,9.7C118.1,466.2,116.9,469.4,114.5,472.1z"/>
</g>
</svg>
