<?xml version="1.0" encoding="utf-8"?>
<!-- Generator: Adobe Illustrator 21.0.2, SVG Export Plug-In . SVG Version: 6.00 Build 0)  -->
<svg version="1.1" id="Layer_1" xmlns="http://www.w3.org/2000/svg" xmlns:xlink="http://www.w3.org/1999/xlink" x="0px" y="0px"
	 viewBox="0 0 16 16" style="enable-background:new 0 0 16 16;" xml:space="preserve">
<g>
	<path d="M8.4,1.1c-0.2-0.2-0.5-0.2-0.6,0C7.6,1.3,3.1,5.6,3.1,9.8c0,2.9,2.2,5.2,5,5.2s5-2.3,5-5.2C13.1,5.7,8.6,1.3,8.4,1.1z
		 M8.9,13.5c-1.2,0-2.1-0.4-2.8-1.1C4.9,11.2,5,9.4,5,9.4c0-0.3,0.2-0.5,0.5-0.5c0.3,0,0.5,0.2,0.5,0.5c0,0,0,1.4,0.8,2.3
		c0.5,0.5,1.2,0.8,2.2,0.8c0.3,0,0.5,0.2,0.5,0.5C9.4,13.3,9.2,13.5,8.9,13.5z"/>
</g>
</svg>
