<?xml version="1.0" encoding="utf-8"?>
<!-- Generator: Adobe Illustrator 21.0.2, SVG Export Plug-In . SVG Version: 6.00 Build 0)  -->
<svg version="1.1" id="Layer_1" xmlns="http://www.w3.org/2000/svg" xmlns:xlink="http://www.w3.org/1999/xlink" x="0px" y="0px"
	 viewBox="0 0 16 16" style="enable-background:new 0 0 16 16;" xml:space="preserve" fill="#ffffff">
<g>
	<path d="M5.3,1.7l-0.1,1v1h6v-1l-0.1-1H5.3z M6.2,2.7h4v1h-4V2.7z M1.2,4.7h4h1h4h1h4v3.5v0.5h-5v-1h-4v1h-5V4.7z M7.2,8.7h2v1h-2
		V8.7z M1.2,9.7h5v1h4v-1h5v1.2v1.7c0,1-0.2,1.5-0.4,1.8c-0.2,0.2-1.8,0.4-2.9,0.4H3.5c-1.1,0-1.6-0.1-1.9-0.4
		c-0.2-0.2-0.4-0.7-0.4-1.8v-1.7V9.7z"/>
</g>
</svg>
