<?xml version="1.0" encoding="utf-8"?>
<!-- Generator: Adobe Illustrator 21.0.2, SVG Export Plug-In . SVG Version: 6.00 Build 0)  -->
<svg version="1.1" id="Layer_1" xmlns="http://www.w3.org/2000/svg" xmlns:xlink="http://www.w3.org/1999/xlink" x="0px" y="0px"
	 viewBox="0 0 16 16" style="enable-background:new 0 0 16 16;" xml:space="preserve" fill="#ffffff">
<path d="M15.5,13.4L8.3,6.3c1-1.8,0.6-4.1-1.1-5.4C5.7-0.3,3.5-0.3,2,0.9C0,2.5-0.1,5.5,1.7,7.2C3,8.6,5.1,8.8,6.7,7.9
	l3.4,3.4l-1.3,1.3c-0.2,0.2-0.2,0.4,0,0.5l0.7,0.7c0.2,0.2,0.4,0.2,0.5,0l1.3-1.3l0.7,0.7l-1.3,1.3c-0.2,0.2-0.2,0.4,0,0.5l0.7,0.7
	c0.2,0.2,0.4,0.2,0.5,0l1.3-1.3l0.5,0.5c0.2,0.2,0.4,0.2,0.5,0l1-1C15.6,13.8,15.6,13.6,15.5,13.4z M3.2,5.6c-0.8-0.8-0.8-2,0-2.8
	s2-0.8,2.8,0s0.8,2,0,2.8S4,6.4,3.2,5.6z"/>
</svg>
