<?xml version="1.0" encoding="utf-8"?>
<!-- Generator: Adobe Illustrator 21.0.2, SVG Export Plug-In . SVG Version: 6.00 Build 0)  -->
<svg version="1.1" id="Layer_1" xmlns="http://www.w3.org/2000/svg" xmlns:xlink="http://www.w3.org/1999/xlink" x="0px" y="0px"
	 viewBox="0 0 16 16" style="enable-background:new 0 0 16 16;" xml:space="preserve" fill="#ffffff">
<path  d="M13.8,6.8c0.1,0,0.2-0.1,0.2-0.2V5.2C14,5.1,13.9,5,13.8,5h-0.4V3.3c0-0.1,0-0.1-0.1-0.2l-1-1.1
	c-0.1-0.1-0.2-0.1-0.4,0l-1,1.1C11,3.2,11,3.3,11,3.3V5H9.2V3.3c0-0.1,0-0.1-0.1-0.2l-1-1.1C8.1,2,7.9,2,7.8,2l-1,1.1
	C6.8,3.2,6.8,3.3,6.8,3.3V5H5V3.3c0-0.1,0-0.1-0.1-0.2L4,2C3.9,2,3.7,2,3.6,2l-1,1.1C2.6,3.2,2.6,3.3,2.6,3.3V5H2.2
	C2.1,5,2,5.1,2,5.2v1.3c0,0.1,0.1,0.2,0.2,0.2h0.4V11H2.2C2.1,11,2,11.1,2,11.2v1.3c0,0.1,0.1,0.2,0.2,0.2h0.4v1
	c0,0.1,0.1,0.2,0.2,0.2h1.9C4.9,14,5,13.9,5,13.8v-1h1.8v1C6.8,13.9,6.9,14,7,14H9c0.1,0,0.2-0.1,0.2-0.2v-1H11v1
	c0,0.1,0.1,0.2,0.2,0.2h1.9c0.1,0,0.2-0.1,0.2-0.2v-1h0.4c0.1,0,0.2-0.1,0.2-0.2v-1.3c0-0.1-0.1-0.2-0.2-0.2h-0.4V6.8H13.8z M5,11
	V6.8h1.8V11H5z M11,11H9.2V6.8H11V11z"/>
</svg>
