<?xml version="1.0" encoding="utf-8"?>
<!-- Generator: Adobe Illustrator 19.1.0, SVG Export Plug-In . SVG Version: 6.00 Build 0)  -->
<svg version="1.1" id="Layer_1" xmlns="http://www.w3.org/2000/svg" xmlns:xlink="http://www.w3.org/1999/xlink" x="0px" y="0px"
	 viewBox="-387 286.5 200 200" style="enable-background:new -387 286.5 200 200;" xml:space="preserve">
<g>
	<path fill="#3777e8" d="M-187,410.2v-104h-129.9c-4.4-11.5-15.4-19.2-27.7-19.2c-16.3,0-29.6,13.3-29.6,29.6c0,16.3,13.3,29.6,29.6,29.6
		s29.6-13.3,29.6-29.6c0-0.8,0-1.6-0.1-2.4H-195v88.1h-107.2v-34.4c0-18.7-17-26.9-17.2-27l-0.5-0.2l-0.4,0.4
		c-0.1,0.1-9.5,10-24.3,10c-14.1,0-24.2-9.9-24.3-10l-0.4-0.4l-0.5,0.2c-0.2,0.1-17.2,8.5-17.2,26.9v61.6h12.8V487h59.2v-57.6h12.8
		v-19.2h20.9v56.1h-22.4V487h72v-20.8h-22.4v-56H-187z M-262.2,410.2v56.1h-11.2v-56.1H-262.2z M-295.8,479v-4.8h56.1v4.8H-295.8z
		 M-344.6,338.2c-11.9,0-21.6-9.7-21.6-21.6c0-11.9,9.7-21.6,21.6-21.6s21.6,9.7,21.6,21.6C-323,328.5-332.7,338.2-344.6,338.2z
		 M-323,421.4V479h-17.7v-44.8h-8V479h-17.6v-57.6H-379v-53.6c0-6.9,3.3-13.4,8.9-17.5c7.3,5.6,16.4,8.6,25.6,8.6
		c9.2,0,18.2-3.1,25.6-8.6c5.6,4.1,8.9,10.6,8.9,17.5v53.6H-323z"/>
	<polygon fill="#3777e8" points="-267.8,346.2 -293.6,371.9 -287.9,377.6 -267.8,357.4 -251.8,373.4 -223.8,345.4 -223.8,352.6 -215.8,352.6 
		-215.8,331.8 -236.6,331.8 -236.6,339.8 -229.4,339.8 -251.8,362.2 	"/>
</g>
</svg>
