<svg xmlns="http://www.w3.org/2000/svg" xmlns:xlink="http://www.w3.org/1999/xlink" preserveAspectRatio="xMidYMid" width="23" height="24" viewBox="0 0 23 24">
  <defs>
    <style>
      .cls-1 {
        fill: #000;
        fill-rule: evenodd;
      }
    </style>
  </defs>
  <path d="M16.269,12.049 L12.346,12.049 L12.346,5.259 C12.346,4.787 11.971,4.405 11.507,4.405 C11.045,4.405 10.669,4.787 10.669,5.259 L10.669,12.902 C10.669,13.374 11.045,13.756 11.507,13.756 L16.269,13.756 C16.733,13.756 17.109,13.374 17.109,12.902 C17.109,12.432 16.733,12.049 16.269,12.049 ZM19.220,5.059 C17.246,3.051 14.519,1.809 11.507,1.809 C8.500,1.809 5.775,3.049 3.800,5.058 L3.799,5.059 L3.798,5.061 L3.795,5.062 C1.821,7.071 0.601,9.844 0.601,12.902 C0.601,15.964 1.822,18.740 3.795,20.746 L3.798,20.744 C5.773,22.753 8.500,23.996 11.507,23.996 C14.508,23.996 17.229,22.759 19.201,20.761 L19.216,20.746 L19.220,20.743 C21.192,18.736 22.414,15.963 22.414,12.902 C22.414,9.866 21.212,7.113 19.264,5.107 L19.220,5.059 ZM18.035,19.541 C16.365,21.238 14.055,22.290 11.507,22.290 C8.956,22.290 6.649,21.240 4.982,19.543 L4.981,19.541 L4.982,19.539 C3.312,17.841 2.279,15.493 2.279,12.902 C2.279,10.308 3.311,7.961 4.978,6.265 L4.982,6.262 C6.649,4.566 8.956,3.516 11.507,3.516 C14.054,3.516 16.363,4.567 18.032,6.265 L18.073,6.303 C19.719,7.995 20.737,10.327 20.737,12.902 C20.737,15.494 19.702,17.843 18.035,19.541 ZM22.866,5.112 C22.628,4.753 22.362,4.394 22.076,4.040 C21.783,3.679 21.487,3.347 21.194,3.049 C20.890,2.740 20.562,2.439 20.220,2.149 L20.219,2.151 L20.216,2.149 C19.868,1.859 19.516,1.590 19.166,1.349 C18.793,1.093 18.413,0.857 18.031,0.647 C17.661,0.443 17.263,0.248 16.840,0.066 C16.416,-0.118 15.924,0.083 15.743,0.516 C15.563,0.948 15.761,1.449 16.186,1.633 C16.527,1.779 16.877,1.952 17.231,2.147 C17.580,2.340 17.913,2.547 18.229,2.762 C18.557,2.987 18.866,3.222 19.153,3.462 L19.152,3.463 C19.443,3.709 19.731,3.974 20.008,4.257 C20.295,4.549 20.555,4.838 20.785,5.121 C21.020,5.411 21.253,5.728 21.476,6.064 C21.736,6.455 22.257,6.558 22.640,6.295 C23.023,6.032 23.124,5.502 22.866,5.112 ZM1.537,6.065 C1.760,5.732 1.991,5.416 2.226,5.126 C2.457,4.841 2.719,4.550 3.007,4.257 C3.294,3.965 3.578,3.700 3.857,3.467 C4.143,3.227 4.453,2.990 4.785,2.762 C5.109,2.541 5.442,2.333 5.782,2.146 L5.823,2.121 C6.153,1.940 6.488,1.777 6.826,1.633 C7.250,1.451 7.449,0.951 7.271,0.519 C7.093,0.087 6.601,-0.115 6.177,0.066 C5.781,0.236 5.397,0.425 5.030,0.624 L4.989,0.645 C4.593,0.863 4.212,1.101 3.848,1.350 C3.495,1.592 3.142,1.863 2.794,2.153 C2.439,2.451 2.113,2.752 1.820,3.049 C1.526,3.349 1.229,3.683 0.935,4.045 C0.650,4.398 0.385,4.755 0.148,5.113 C-0.110,5.502 -0.008,6.032 0.374,6.296 C0.758,6.558 1.279,6.456 1.537,6.065 Z" class="cls-1"/>
</svg>
