<?xml version="1.0" encoding="utf-8"?>
<!-- Generator: Adobe Illustrator 19.1.0, SVG Export Plug-In . SVG Version: 6.00 Build 0)  -->
<svg version="1.1" id="Layer_1" xmlns="http://www.w3.org/2000/svg" xmlns:xlink="http://www.w3.org/1999/xlink" x="0px" y="0px"
	 viewBox="0 0 21.9 22" style="enable-background:new 0 0 21.9 22;" xml:space="preserve">
<style type="text/css">
	.st0{fill:#010101;}
</style>
<path d="M11,0C5.5,0,0,1.3,0,3.7c0,0.6,0.3,1.1,0.9,1.6L8.5,14v4.9l4.9,3.1l0,0v-8L21,5.2c0.6-0.5,0.9-1,0.9-1.6
	C21.9,1.3,16.4,0,11,0z M1.3,3.7c0-0.8,3.3-2.4,9.7-2.4s9.7,1.6,9.7,2.4S17.3,6.1,11,6.1S1.3,4.5,1.3,3.7z M12.2,13.6v6.1l-2.4-1.5
	v-4.6L3.7,6.5C5.6,7.1,8.2,7.4,11,7.4s5.4-0.3,7.3-0.9l-5.8,6.7L12.2,13.6z"/>
</svg>
